<?xml version="1.0" encoding="UTF-8"?>
<testsuite name="pad.ijvm.advanced.AdvancedTestNestedInvoke" tests="2" skipped="0" failures="1" errors="0" timestamp="2017-06-30T12:10:46" hostname="skyflake" time="0.003">
  <properties/>
  <testcase name="testNestedInvokeSimple" classname="pad.ijvm.advanced.AdvancedTestNestedInvoke" time="0.001">
    <failure message="java.util.NoSuchElementException" type="java.util.NoSuchElementException">java.util.NoSuchElementException
	at java.util.ArrayDeque.removeFirst(ArrayDeque.java:280)
	at java.util.ArrayDeque.pop(ArrayDeque.java:517)
	at pad.ijvm.IJVM.step(IJVM.java:280)
	at pad.ijvm.advanced.AdvancedTestNestedInvoke.testNestedInvokeSimple(AdvancedTestNestedInvoke.java:23)
	at sun.reflect.NativeMethodAccessorImpl.invoke0(Native Method)
	at sun.reflect.NativeMethodAccessorImpl.invoke(NativeMethodAccessorImpl.java:62)
	at sun.reflect.DelegatingMethodAccessorImpl.invoke(DelegatingMethodAccessorImpl.java:43)
	at java.lang.reflect.Method.invoke(Method.java:498)
	at org.junit.runners.model.FrameworkMethod$1.runReflectiveCall(FrameworkMethod.java:50)
	at org.junit.internal.runners.model.ReflectiveCallable.run(ReflectiveCallable.java:12)
	at org.junit.runners.model.FrameworkMethod.invokeExplosively(FrameworkMethod.java:47)
	at org.junit.internal.runners.statements.InvokeMethod.evaluate(InvokeMethod.java:17)
	at org.junit.internal.runners.statements.FailOnTimeout$CallableStatement.call(FailOnTimeout.java:298)
	at org.junit.internal.runners.statements.FailOnTimeout$CallableStatement.call(FailOnTimeout.java:292)
	at java.util.concurrent.FutureTask.run(FutureTask.java:266)
	at java.lang.Thread.run(Thread.java:748)
</failure>
  </testcase>
  <testcase name="testNestedInvoke" classname="pad.ijvm.advanced.AdvancedTestNestedInvoke" time="0.002"/>
  <system-out><![CDATA[56
86
]]></system-out>
  <system-err><![CDATA[]]></system-err>
</testsuite>
