-Xlint:warning
-1.6
-deprecation
-encoding
UTF-8
-showWeaveInfo
-source
1.6
-target
1.6
-classpath
/home/r/.m2/repository/com/jcabi/jcabi-log/0.15/jcabi-log-0.15.jar:/home/r/.m2/repository/org/aspectj/aspectjrt/1.8.4/aspectjrt-1.8.4.jar:/home/r/.m2/repository/javax/validation/validation-api/1.1.0.Final/validation-api-1.1.0.Final.jar:/home/r/.m2/repository/org/hibernate/hibernate-validator/5.0.0.Final/hibernate-validator-5.0.0.Final.jar:/home/r/.m2/repository/junit/junit/4.12-beta-3/junit-4.12-beta-3.jar:/home/r/.m2/repository/org/hamcrest/hamcrest-core/1.3/hamcrest-core-1.3.jar:/home/r/.m2/repository/org/hamcrest/hamcrest-library/1.3/hamcrest-library-1.3.jar:/home/r/.m2/repository/org/mockito/mockito-core/1.10.8/mockito-core-1.10.8.jar:/home/r/.m2/repository/org/slf4j/slf4j-log4j12/1.7.7/slf4j-log4j12-1.7.7.jar:/home/r/.m2/repository/log4j/log4j/1.2.17/log4j-1.2.17.jar:/home/r/.m2/repository/org/slf4j/slf4j-api/1.7.5/slf4j-api-1.7.5.jar:/home/r/repo/target/classes
-d
/home/r/repo/target/classes
/home/r/repo/target/filtered-sources/java/com/jcabi/aspects/aj/SingleException.java
/home/r/repo/target/filtered-sources/java/com/jcabi/aspects/aj/Mnemos.java
/home/r/repo/target/filtered-sources/java/com/jcabi/aspects/aj/NamedThreads.java
/home/r/repo/target/filtered-sources/java/com/jcabi/aspects/aj/LogHelper.java
/home/r/repo/target/filtered-sources/java/com/jcabi/aspects/aj/ImmutabilityChecker.java
/home/r/repo/target/filtered-sources/java/com/jcabi/aspects/aj/MethodCacher.java
/home/r/repo/target/filtered-sources/java/com/jcabi/aspects/aj/JoinPointUtils.java
/home/r/repo/target/filtered-sources/java/com/jcabi/aspects/aj/Repeater.java
/home/r/repo/target/filtered-sources/java/com/jcabi/aspects/aj/MethodInterrupter.java
/home/r/repo/target/filtered-sources/java/com/jcabi/aspects/aj/MethodAsyncRunner.java
/home/r/repo/target/filtered-sources/java/com/jcabi/aspects/aj/MethodLogger.java
/home/r/repo/target/filtered-sources/java/com/jcabi/aspects/aj/ExceptionsLogger.java
/home/r/repo/target/filtered-sources/java/com/jcabi/aspects/aj/QuietExceptionsLogger.java
/home/r/repo/target/filtered-sources/java/com/jcabi/aspects/aj/Parallelizer.java
/home/r/repo/target/filtered-sources/java/com/jcabi/aspects/aj/MethodValidator.java
/home/r/repo/target/filtered-sources/java/com/jcabi/aspects/aj/MethodScheduler.java
/home/r/repo/target/filtered-sources/java/com/jcabi/aspects/Async.java
/home/r/repo/target/filtered-sources/java/com/jcabi/aspects/LogExceptions.java
/home/r/repo/target/filtered-sources/java/com/jcabi/aspects/Timeable.java
/home/r/repo/target/filtered-sources/java/com/jcabi/aspects/UnitedThrow.java
/home/r/repo/target/filtered-sources/java/com/jcabi/aspects/Immutable.java
/home/r/repo/target/filtered-sources/java/com/jcabi/aspects/Parallel.java
/home/r/repo/target/filtered-sources/java/com/jcabi/aspects/Tv.java
/home/r/repo/target/filtered-sources/java/com/jcabi/aspects/RetryOnFailure.java
/home/r/repo/target/filtered-sources/java/com/jcabi/aspects/Loggable.java
/home/r/repo/target/filtered-sources/java/com/jcabi/aspects/Quietly.java
/home/r/repo/target/filtered-sources/java/com/jcabi/aspects/apt/AsyncReturnTypeProcessor.java
/home/r/repo/target/filtered-sources/java/com/jcabi/aspects/apt/QuietlyReturnTypeProcessor.java
/home/r/repo/target/filtered-sources/java/com/jcabi/aspects/ScheduleWithFixedDelay.java
/home/r/repo/target/filtered-sources/java/com/jcabi/aspects/Cacheable.java
